<svg xmlns="http://www.w3.org/2000/svg" width="62.654" height="63.931" viewBox="0 0 62.654 63.931">
  <defs>
    <style>
      .cls-1 {
        fill: #4a7262;
      }
    </style>
  </defs>
  <g id="surface1" transform="translate(-0.089 -0.001)">
    <path id="Trazado_624" data-name="Trazado 624" class="cls-1" d="M1.265,17.661a2.586,2.586,0,0,0-.041.382v2.63a2.607,2.607,0,0,0,1.692,2.433v3.87A2.433,2.433,0,0,0,5.234,29.4V51.754a2.433,2.433,0,0,0-2.317,2.422v3.858A2.637,2.637,0,0,0,1.225,60.49v2.573a.869.869,0,0,0,.869.869H60.7a.869.869,0,0,0,.869-.869V60.49a2.636,2.636,0,0,0-1.691-2.456V54.153a2.433,2.433,0,0,0-2.317-2.422V29.4a2.433,2.433,0,0,0,2.317-2.422v-3.87a2.607,2.607,0,0,0,1.691-2.433V18.06a2.532,2.532,0,0,0-.041-.382.865.865,0,0,0,.7-1.582L31.8.1a.869.869,0,0,0-.811,0L.553,16.079a.869.869,0,0,0,.712,1.582Zm3.389,6.952V23.274H14.677V24.6ZM26.97,29.4v22.35a2.433,2.433,0,0,0-2.317,2.422v3.7H16.4v-3.7a2.433,2.433,0,0,0-2.317-2.422V29.4A2.433,2.433,0,0,0,16.4,26.976v-3.7h8.238v3.7A2.434,2.434,0,0,0,26.959,29.4Zm-.579-4.791V23.274H36.413V24.6ZM48.707,29.4v22.35a2.434,2.434,0,0,0-2.318,2.422v3.7h-8.25v-3.7a2.434,2.434,0,0,0-2.317-2.422V29.4a2.433,2.433,0,0,0,2.317-2.422v-3.7h8.238v3.7A2.433,2.433,0,0,0,48.695,29.4Zm-.579-4.791V23.274H58.149V24.6ZM58.149,56.545v1.326H48.115V56.545Zm-21.736,0v1.326H26.379V56.545ZM27.827,27.677h-.753a.7.7,0,0,1-.7-.7V26.35H36.4v.632a.7.7,0,0,1-.7.7Zm6.263,1.738V51.743H28.7V29.415ZM27.827,53.481h7.879a.7.7,0,0,1,.7.7v.632H26.379v-.632a.7.7,0,0,1,.7-.7ZM14.665,56.545v1.326H4.643V56.545ZM4.643,27V26.35H14.665v.632a.7.7,0,0,1-.7.7H5.32a.7.7,0,0,1-.678-.7Zm7.705,2.433v22.31H6.96V29.415ZM4.643,54.193a.7.7,0,0,1,.7-.7H13.97a.7.7,0,0,1,.7.7v.631H4.643Zm55.187,6.332v1.7H2.951v-1.7a.9.9,0,0,1,.9-.9H58.932a.9.9,0,0,1,.9.881Zm-1.691-6.332v.631H48.115v-.631a.7.7,0,0,1,.7-.7h8.65a.7.7,0,0,1,.678.678ZM50.433,51.76V29.415h5.393V51.743ZM58.138,27a.7.7,0,0,1-.7.7H48.816a.7.7,0,0,1-.7-.7V26.35H58.143ZM31.39,1.839l25.878,13.6H5.512ZM2.951,18.06a.869.869,0,0,1,.869-.869H58.961a.869.869,0,0,1,.869.869v2.63a.869.869,0,0,1-.869.869H3.82a.869.869,0,0,1-.869-.869Zm0,0" transform="translate(0 0)"/>
  </g>
</svg>
