<?xml version="1.0" encoding="utf-8"?>
<!-- Generator: Adobe Illustrator 22.0.1, SVG Export Plug-In . SVG Version: 6.00 Build 0)  -->
<svg version="1.1" id="Capa_1" xmlns="http://www.w3.org/2000/svg" xmlns:xlink="http://www.w3.org/1999/xlink" x="0px" y="0px"
	 viewBox="0 0 86.2 87.8" style="enable-background:new 0 0 86.2 87.8;" xml:space="preserve">
<style type="text/css">
	.st0{fill:#46AC34;}
	.st1{fill:none;}
	.st2{fill:#DB6068;}
	.st3{fill:none;stroke:#DB6068;stroke-width:2;stroke-linecap:square;stroke-miterlimit:10;}
	.st4{fill:none;stroke:#FFFFFF;stroke-width:2;stroke-linecap:square;stroke-miterlimit:10;}
</style>
<title>bateriaIco</title>
<g id="Capa_2_1_">
	<g id="Capa_1-2">
		<path class="st0" d="M50.3,13.1H27.5c-0.6,0-1,0.5-1,1s0.5,1,1,1h22.7c1.7,0,3.1,1.4,3.1,3.1v45.5c0,1.7-1.4,3.1-3.1,3.1h-31
			c-1.7,0-3.1-1.4-3.1-3.1V18.2c0-1.7,1.4-3.1,3.1-3.1l0,0h4.1c0.6,0,1-0.4,1-1V10c0-0.6,0.4-1,1-1H44c0.6,0,1,0.4,1,1
			c0,0.6,0.5,1,1,1s1-0.5,1-1c0-1.7-1.4-3.1-3.1-3.1H25.5c-1.7,0-3.1,1.4-3.1,3.1l0,0v3.1h-3.1c-2.9,0-5.2,2.3-5.2,5.2v45.4
			c0,2.9,2.3,5.2,5.2,5.2h31c2.9,0,5.2-2.3,5.2-5.2V18.2C55.4,15.4,53.1,13.1,50.3,13.1z"/>
		<path class="st0" d="M39.8,39.4l-6,7.2l1-3.9c0.1-0.3,0-0.6-0.2-0.9c-0.2-0.3-0.5-0.4-0.8-0.4h-4.2l6.4-8.9l-1.1,5.6
			c-0.1,0.3,0,0.6,0.2,0.9c0.2,0.2,0.5,0.4,0.8,0.4H39.8z M38.3,27.1c-0.4-0.2-1-0.1-1.2,0.4L26.7,41.9c-0.3,0.4-0.3,1.1,0.1,1.4
			c0.2,0.2,0.5,0.2,0.7,0.2h4.9l-1.7,7c-0.1,0.5,0.1,1,0.5,1.2c0.1,0.1,0.3,0.1,0.5,0.1c0.3,0,0.6-0.1,0.8-0.4L42.8,39
			c0.4-0.4,0.4-1,0-1.4c-0.2-0.2-0.5-0.3-0.8-0.3H37l1.8-9.1C39,27.8,38.7,27.3,38.3,27.1z"/>
		<rect class="st1" width="86.2" height="87.8"/>
		<g>
			<path class="st2" d="M54.7,48.9c2.1,0,4.2,0.4,6.1,1.2c1,0.4,1.9,0.9,2.8,1.5c0.9,0.6,1.7,1.3,2.4,2c0.7,0.7,1.4,1.5,2,2.4
				c0.6,0.9,1.1,1.8,1.5,2.7c0.4,1,0.7,2,0.9,3c0.4,2.1,0.4,4.2,0,6.2c-0.2,1-0.5,2-0.9,3c-0.4,1-0.9,1.9-1.5,2.7
				c-0.6,0.9-1.2,1.7-2,2.4c-0.7,0.7-1.6,1.4-2.4,2c-0.9,0.6-1.8,1.1-2.8,1.5c-5.9,2.5-12.8,1.1-17.4-3.5c-0.7-0.7-1.4-1.5-2-2.4
				c-0.6-0.9-1.1-1.8-1.5-2.8c-1.6-3.9-1.6-8.3,0-12.2c0.4-1,0.9-1.9,1.5-2.7c0.6-0.9,1.2-1.7,2-2.4c0.7-0.7,1.5-1.4,2.4-2
				c0.9-0.6,1.8-1.1,2.8-1.5C50.5,49.3,52.6,48.9,54.7,48.9L54.7,48.9z"/>
			<path class="st3" d="M54.7,48.9c2.1,0,4.2,0.4,6.1,1.2c1,0.4,1.9,0.9,2.8,1.5c0.9,0.6,1.7,1.3,2.4,2c0.7,0.7,1.4,1.5,2,2.4
				c0.6,0.9,1.1,1.8,1.5,2.7c0.4,1,0.7,2,0.9,3c0.4,2.1,0.4,4.2,0,6.2c-0.2,1-0.5,2-0.9,3c-0.4,1-0.9,1.9-1.5,2.7
				c-0.6,0.9-1.2,1.7-2,2.4c-0.7,0.7-1.6,1.4-2.4,2c-0.9,0.6-1.8,1.1-2.8,1.5c-4.9,2-10.5,1.5-14.9-1.5c-0.9-0.6-1.7-1.2-2.4-2
				c-0.7-0.7-1.4-1.5-2-2.4c-0.6-0.9-1.1-1.8-1.5-2.8c-1.6-3.9-1.6-8.3,0-12.2c0.4-1,0.9-1.9,1.5-2.7c0.6-0.9,1.2-1.7,2-2.4
				c0.7-0.7,1.5-1.4,2.4-2c0.9-0.6,1.8-1.1,2.8-1.5C50.5,49.3,52.6,48.9,54.7,48.9L54.7,48.9z"/>
			<line class="st4" x1="49.7" y1="69.8" x2="58.7" y2="60.9"/>
			<line class="st4" x1="49.7" y1="60.9" x2="58.7" y2="69.8"/>
		</g>
	</g>
</g>
</svg>
