{
    "log_data": {
        "requestId": {
            "$resolver": "mdc",
            "key": "requestId"
        },
        "hostName": "${hostName}",
        "@json.servicios": {
            "$resolver": "mdc",
            "key": "traceServices"
        },
        "mensaje": {
            "$resolver": "message"
        },
        "thread": {
            "$resolver": "thread",
            "field": "name"
        },
        "level": {
            "$resolver": "level",
            "field": "name"
        },
        "loggerName": {
            "$resolver": "logger",
            "field": "name"
        },
        "thrown": {
            "message": {
                "$resolver": "exception",
                "field": "message"
            },
            "name": {
                "$resolver": "exception",
                "field": "className"
            },
            "extendedStackTrace": {
                "$resolver": "exception",
                "field": "stackTrace"
            }
        },
        "endOfBatch": {
            "$resolver": "endOfBatch"
        },
        "loggerFqcn": {
            "$resolver": "logger",
            "field": "fqcn"
        },
        "threadId": {
            "$resolver": "thread",
            "field": "id"
        },
        "threadPriority": {
            "$resolver": "thread",
            "field": "priority"
        },
        "source": {
            "class": {
                "$resolver": "source",
                "field": "className"
            },
            "method": {
                "$resolver": "source",
                "field": "methodName"
            },
            "file": {
                "$resolver": "source",
                "field": "fileName"
            },
            "line": {
                "$resolver": "source",
                "field": "lineNumber"
            }
        }
    },
    "fecha": {
        "$resolver": "timestamp",
        "pattern": {
            "format": "yyyy-MM-dd HH:mm:ss.SSS",
            "timeZone": "UTC",
            "locale": "es_MX"
        }
    },
    "@json.TiempoTotal": {
        "$resolver": "mdc",
        "key": "totalTime"
    }
}
