<?xml version="1.0" encoding="utf-8"?>
<!-- Generator: Adobe Illustrator 22.0.1, SVG Export Plug-In . SVG Version: 6.00 Build 0)  -->
<svg version="1.1" id="Capa_1" xmlns="http://www.w3.org/2000/svg" xmlns:xlink="http://www.w3.org/1999/xlink" x="0px" y="0px"
	 viewBox="0 0 86.2 87.8" style="enable-background:new 0 0 86.2 87.8;" xml:space="preserve">
<style type="text/css">
	.st0{fill:none;}
	.st1{fill:#46AC34;}
	.st2{fill:#DB6068;}
	.st3{fill:none;stroke:#DB6068;stroke-width:2;stroke-linecap:square;stroke-miterlimit:10;}
	.st4{fill:none;stroke:#FFFFFF;stroke-width:2;stroke-linecap:square;stroke-miterlimit:10;}
</style>
<title>temperaturaIco</title>
<g id="Capa_2_1_">
	<g id="Capa_1-2">
		<rect class="st0" width="86.2" height="87.8"/>
		<path class="st1" d="M32.9,66C26,66.2,20.2,60.7,20,53.8c-0.1-4.4,2.1-8.5,5.7-10.9c0.4-0.3,0.7-0.7,0.7-1.2l-0.7-25.9
			c-0.1-3.2,2.4-5.9,5.6-6c3.2-0.1,5.9,2.4,6,5.6L38,41.3c0,0.5,0.3,1,0.7,1.2c6,3.4,8.2,11,4.8,17.1C41.4,63.5,37.3,65.9,32.9,66z
			 M40.9,40.5l-0.7-25.1C40,10.5,36,6.8,31.3,6.9s-8.6,4.1-8.4,8.9l0.7,25.1c-4.2,3-6.6,7.8-6.4,12.9c0.2,8.5,7.3,15.3,15.9,15
			s15.3-7.3,15-15.9C47.9,47.9,45.2,43.2,40.9,40.5L40.9,40.5z"/>
		<path class="st1" d="M32.7,57.5c-2.2-0.1-3.9-1.9-3.9-4.1c0.1-1.8,1.3-3.3,3-3.7c0.2,0.1,0.4,0.2,0.7,0.2c0.2,0,0.5-0.1,0.7-0.2
			c2.2,0.4,3.6,2.5,3.2,4.7C35.9,56.1,34.4,57.4,32.7,57.5z M33.8,46.8l-0.5-17c0-0.8-0.7-1.4-1.5-1.4s-1.4,0.7-1.4,1.5l0.5,17.1
			c-3.7,0.9-6,4.6-5.1,8.3c0.9,3.7,4.6,6,8.3,5.1c3.7-0.9,6-4.6,5.1-8.3C38.6,49.4,36.5,47.3,33.8,46.8L33.8,46.8z"/>
		<g>
			<path class="st2" d="M52.2,48.9c2.1,0,4.2,0.4,6.1,1.2c1,0.4,1.9,0.9,2.8,1.5c0.9,0.6,1.7,1.3,2.4,2c0.7,0.7,1.4,1.6,2,2.4
				c0.6,0.9,1.1,1.8,1.5,2.8c0.4,1,0.7,2,0.9,3c0.4,2.1,0.4,4.2,0,6.2c-0.2,1-0.5,2-0.9,3c-0.4,1-0.9,1.9-1.5,2.8
				c-0.6,0.9-1.3,1.7-2,2.4c-0.7,0.7-1.6,1.4-2.4,2c-0.9,0.6-1.8,1.1-2.8,1.5c-6,2.5-12.9,1.1-17.4-3.5c-0.8-0.7-1.4-1.6-2-2.4
				c-0.6-0.9-1.1-1.8-1.5-2.8c-1.6-3.9-1.6-8.3,0-12.3c0.4-1,0.9-1.9,1.5-2.8c0.6-0.9,1.2-1.7,2-2.4c0.7-0.7,1.6-1.4,2.4-2
				c0.9-0.6,1.8-1.1,2.8-1.5C48,49.3,50.1,48.9,52.2,48.9L52.2,48.9z"/>
			<path class="st3" d="M52.2,48.9c2.1,0,4.2,0.4,6.1,1.2c1,0.4,1.9,0.9,2.8,1.5c0.9,0.6,1.7,1.3,2.4,2c0.7,0.7,1.4,1.6,2,2.4
				c0.6,0.9,1.1,1.8,1.5,2.8c0.4,1,0.7,2,0.9,3c0.4,2.1,0.4,4.2,0,6.2c-0.2,1-0.5,2-0.9,3c-0.4,1-0.9,1.9-1.5,2.8
				c-0.6,0.9-1.3,1.7-2,2.4c-0.7,0.7-1.6,1.4-2.4,2c-0.9,0.6-1.8,1.1-2.8,1.5c-4.9,2-10.6,1.5-15-1.5c-0.9-0.6-1.7-1.3-2.4-2
				c-0.8-0.7-1.4-1.6-2-2.4c-0.6-0.9-1.1-1.8-1.5-2.8c-1.6-3.9-1.6-8.3,0-12.3c0.4-1,0.9-1.9,1.5-2.8c0.6-0.9,1.2-1.7,2-2.4
				c0.7-0.7,1.6-1.4,2.4-2c0.9-0.6,1.8-1.1,2.8-1.5C48,49.3,50.1,48.9,52.2,48.9L52.2,48.9z"/>
			<line class="st4" x1="47.2" y1="69.9" x2="56.2" y2="60.9"/>
			<line class="st4" x1="47.2" y1="60.9" x2="56.2" y2="69.9"/>
		</g>
	</g>
</g>
</svg>
