<?xml version="1.0" encoding="utf-8"?>
<!-- Generator: Adobe Illustrator 16.0.0, SVG Export Plug-In . SVG Version: 6.00 Build 0)  -->
<!DOCTYPE svg PUBLIC "-//W3C//DTD SVG 1.1//EN" "http://www.w3.org/Graphics/SVG/1.1/DTD/svg11.dtd">
<svg version="1.1" id="Layer_4" xmlns="http://www.w3.org/2000/svg" xmlns:xlink="http://www.w3.org/1999/xlink" x="0px" y="0px"
	 width="24px" height="72px" viewBox="0 0 24 72" enable-background="new 0 0 24 72" xml:space="preserve">
<circle fill="#008555" cx="11.409" cy="6.452" r="6.453"/>
<circle fill="#FFFFFF" cx="11.409" cy="6.452" r="4.473"/>
<circle fill="#008555" cx="11.423" cy="54.533" r="6.453"/>
<circle fill="#FFFFFF" cx="11.423" cy="54.533" r="4.473"/>
<circle fill="#008555" cx="11.423" cy="54.533" r="2.433"/>
</svg>
