<?xml version="1.0" encoding="utf-8"?>
<!-- Generator: Adobe Illustrator 17.0.0, SVG Export Plug-In . SVG Version: 6.00 Build 0)  -->
<!DOCTYPE svg PUBLIC "-//W3C//DTD SVG 1.1//EN" "http://www.w3.org/Graphics/SVG/1.1/DTD/svg11.dtd">
<svg version="1.1" id="Capa_1" xmlns="http://www.w3.org/2000/svg" xmlns:xlink="http://www.w3.org/1999/xlink" x="0px" y="0px"
	 width="35px" height="30px" viewBox="0 0 35 30" enable-background="new 0 0 35 30" xml:space="preserve">
<g>
	<g>
		<g>
			<polygon fill="#616261" points="21.584,1.354 21.584,11.221 24.463,8.905 27.253,11.221 27.253,1.354 			"/>
		</g>
	</g>
	<path fill="#616261" d="M25.647,19.24l-5.43-2.329v-5.016c0-0.874-0.709-1.584-1.584-1.584c-0.874,0-1.584,0.709-1.584,1.584
		v10.158l-0.379,0.379l-1.579-2.277c-0.498-0.719-1.485-0.898-2.204-0.399c-0.719,0.498-0.896,1.485-0.399,2.204l4.368,6.278v0.409
		l8.791,0l0.601-1.201c0.386-0.772,0.587-1.624,0.587-2.487v-3.886C26.837,20.28,26.371,19.562,25.647,19.24z"/>
	<path fill="#616261" d="M34.209,5.47c-0.001-1.689-1.376-3.063-3.065-3.063L3.847,2.409c-0.819,0-1.589,0.319-2.167,0.899
		C1.101,3.886,0.783,4.656,0.783,5.475l0.008,17.078c0,1.689,1.375,3.063,3.064,3.063h0.001l8.543-0.001l-1.269-1.824l-5.997,0
		V4.233l24.733-0.002V23.79l-0.868,0v1.167c0,0.219-0.02,0.438-0.039,0.657l2.193,0c1.69,0,3.065-1.376,3.064-3.066L34.209,5.47z"/>
	<rect x="10.115" y="5.904" fill="#616261" width="2.799" height="2.799"/>
	<rect x="10.115" y="10.378" fill="#616261" width="2.799" height="2.799"/>
	<rect x="10.115" y="14.853" fill="#616261" width="2.799" height="2.799"/>
</g>
</svg>
