<?xml version="1.0" encoding="utf-8"?>
<!-- Generator: Adobe Illustrator 17.0.0, SVG Export Plug-In . SVG Version: 6.00 Build 0)  -->
<!DOCTYPE svg PUBLIC "-//W3C//DTD SVG 1.1//EN" "http://www.w3.org/Graphics/SVG/1.1/DTD/svg11.dtd">
<svg version="1.1" id="Capa_1" xmlns="http://www.w3.org/2000/svg" xmlns:xlink="http://www.w3.org/1999/xlink" x="0px" y="0px"
	 width="23px" height="23px" viewBox="0 0 23 23" enable-background="new 0 0 23 23" xml:space="preserve">
<g>
	<path fill="#AEAEAE" d="M11.5,1.292c-5.53,0-10.028,4.579-10.028,10.208c0,5.629,4.499,10.209,10.028,10.209
		c5.53,0,10.028-4.579,10.028-10.209C21.528,5.871,17.03,1.292,11.5,1.292 M7.962,3.499C7.595,4.03,7.268,4.646,6.984,5.331
		C6.625,5.142,6.286,4.934,5.979,4.71C6.579,4.223,7.247,3.817,7.962,3.499 M4.951,5.696C5.41,6.077,5.93,6.419,6.5,6.711
		C6.148,7.932,5.933,9.307,5.879,10.77H2.763C2.925,8.83,3.724,7.071,4.951,5.696 M2.763,12.23h3.116
		c0.055,1.467,0.272,2.842,0.621,4.063c-0.569,0.291-1.083,0.633-1.542,1.018C3.727,15.934,2.925,14.173,2.763,12.23 M5.982,18.297
		c0.306-0.228,0.64-0.441,1.001-0.627c0.284,0.684,0.611,1.3,0.979,1.834C7.25,19.187,6.582,18.782,5.982,18.297 M10.873,20.145
		c-1.059-0.318-2.007-1.414-2.687-2.992c0.827-0.285,1.732-0.466,2.687-0.523V20.145z M10.873,15.174
		c-1.138,0.056-2.206,0.267-3.173,0.612c-0.312-1.075-0.511-2.283-0.569-3.557h3.742V15.174z M10.873,10.77H7.13
		c0.058-1.275,0.257-2.481,0.565-3.554c0.971,0.342,2.039,0.552,3.177,0.609V10.77z M10.873,6.369
		c-0.955-0.056-1.86-0.238-2.687-0.524c0.68-1.573,1.628-2.673,2.687-2.989V6.369z M20.237,10.77h-3.118
		c-0.055-1.467-0.27-2.842-0.622-4.062c0.569-0.292,1.084-0.634,1.542-1.018C19.27,7.067,20.075,8.827,20.237,10.77 M17.018,4.707
		c-0.306,0.227-0.64,0.439-1.001,0.628c-0.285-0.688-0.612-1.304-0.983-1.835C15.751,3.814,16.418,4.219,17.018,4.707 M12.127,2.856
		c1.056,0.317,2.004,1.417,2.683,2.989c-0.826,0.286-1.732,0.468-2.683,0.524V2.856z M12.127,7.83
		c1.135-0.061,2.206-0.271,3.173-0.613c0.312,1.072,0.511,2.279,0.566,3.554h-3.74V7.83z M12.127,12.23h3.74
		c-0.055,1.279-0.254,2.482-0.566,3.557c-0.967-0.342-2.035-0.556-3.173-0.612V12.23z M12.127,20.145v-3.515
		c0.952,0.058,1.861,0.239,2.687,0.523C14.135,18.728,13.186,19.828,12.127,20.145 M15.034,19.504
		c0.371-0.531,0.695-1.146,0.979-1.83c0.359,0.188,0.702,0.394,1.008,0.619C16.418,18.782,15.751,19.187,15.034,19.504
		 M18.046,17.307c-0.459-0.381-0.979-0.727-1.549-1.018c0.352-1.221,0.566-2.592,0.622-4.059h3.118
		C20.075,14.17,19.273,15.93,18.046,17.307"/>
</g>
</svg>
