<?xml version="1.0" encoding="utf-8"?>
<!-- Generator: Adobe Illustrator 17.0.0, SVG Export Plug-In . SVG Version: 6.00 Build 0)  -->
<!DOCTYPE svg PUBLIC "-//W3C//DTD SVG 1.1//EN" "http://www.w3.org/Graphics/SVG/1.1/DTD/svg11.dtd">
<svg version="1.1" id="Capa_1" xmlns="http://www.w3.org/2000/svg" xmlns:xlink="http://www.w3.org/1999/xlink" x="0px" y="0px"
	 width="35px" height="35px" viewBox="0 0 35 35" enable-background="new 0 0 35 35" xml:space="preserve">
<g>
	<defs>
		<path id="SVGID_1_" d="M27.427,8.746l0.411,5.244l-0.809,0.863l-0.784-0.867l0.394-5.24l-0.944-0.908l-0.734,0.586
			c-0.583,0.186-1.156,0.368-1.705,0.577c0,0-0.289,0.103-0.619,0.223c0.052,0.02,0.104,0.039,0.156,0.059
			c0,0,0.565,0.2,1.124,0.406l0.076,0.026l0.007,0.002c1.271,0.437,1.277,1.452,1.277,1.452v5.89l-0.055,5.898
			c0,0-0.569,0.679-1.567,0.694v3.733c0,0.406,0.591,0.985,1.7,0.983c1.102-0.002,1.68-0.831,1.68-0.831s0.568,0.875,1.669,0.875
			c1.092,0,1.649-0.786,1.649-1.194l0.002-8.495c0,0,0.346,0.494,1.103,0.494c0.761,0,1.141-0.494,1.141-0.494l0.041-4.193v-4.187
			c0,0-0.04-0.722-0.943-1.032l-0.02-0.001L31.61,9.29c-0.397-0.146-0.804-0.289-0.804-0.289c-0.554-0.212-1.124-0.395-1.708-0.577
			l-0.731-0.586L27.427,8.746z"/>
	</defs>
	<use xlink:href="#SVGID_1_"  overflow="visible" fill="#42B27F"/>
	<clipPath id="SVGID_2_">
		<use xlink:href="#SVGID_1_"  overflow="visible"/>
	</clipPath>
	
		<rect x="17.327" y="13.078" transform="matrix(0.0045 -1 1 0.0045 9.3868 45.6801)" clip-path="url(#SVGID_2_)" fill="#42B27F" width="20.619" height="10.094"/>
</g>
<g>
	<defs>
		<path id="SVGID_3_" d="M26.969,1.817c-1.15,0-2.081,0.854-2.081,1.952c0,0.112,0.028,0.586,0.028,0.723
			c-0.009,0-0.026-0.003-0.048-0.006c-0.112-0.017-0.354-0.033-0.313,0.411c0.106,1.133,0.453,0.916,0.465,0.916
			c0.223,0.682,0.567,1.117,0.904,1.396c0.527,0.432,1.039,0.543,1.048,0.543c0,0,0.013,0.005,0.042,0.005
			c0.027,0,0.044-0.005,0.044-0.005c0.008,0,0.518-0.111,1.041-0.538c0.341-0.276,0.687-0.714,0.91-1.398
			c0.014,0,0.371,0.223,0.477-0.907c0.041-0.46-0.226-0.45-0.335-0.439c-0.018,0.002-0.032,0.003-0.039,0.003
			c0-0.137,0.029-0.591,0.029-0.703c0-1.1-0.933-1.952-2.081-1.952H26.969z"/>
	</defs>
	<use xlink:href="#SVGID_3_"  overflow="visible" fill="#42B27F"/>
	<clipPath id="SVGID_4_">
		<use xlink:href="#SVGID_3_"  overflow="visible"/>
	</clipPath>
	
		<rect x="24.039" y="2.267" transform="matrix(0.0045 -1 1 0.0045 22.1115 31.7865)" clip-path="url(#SVGID_4_)" fill="#42B27F" width="5.963" height="5.041"/>
</g>
<g>
	<defs>
		<path id="SVGID_5_" d="M8.33,8.746l0.411,5.244l-0.808,0.863l-0.784-0.867l0.394-5.24L6.599,7.839L5.865,8.425
			C5.281,8.61,4.709,8.792,4.159,9.002c0,0-0.328,0.109-0.67,0.234L3.441,9.245v0c-1.025,0.34-1.077,0.973-1.078,1.081v0.008
			c0,0.005,0,0.008,0,0.008l0.011,4.187l0.004,4.193c0,0,0.415,0.482,1.176,0.482c0.752,0,1.096-0.482,1.096-0.482l0.001,8.664
			c0,0.406,0.544,0.985,1.652,0.983c1.102-0.002,1.656-0.831,1.656-0.831s0.556,0.875,1.657,0.875c1.092,0,1.643-0.786,1.643-1.194
			l0-3.582c-1.026-0.029-1.581-0.678-1.581-0.678L9.68,17.06l-0.001-5.89c0,0-0.001-1.02,1.545-1.544l0-0.001l0.038-0.013
			c0.482-0.176,0.913-0.329,0.913-0.329c0.051-0.019,0.102-0.038,0.153-0.058c-0.332-0.121-0.624-0.225-0.624-0.225
			C11.152,8.789,10.583,8.607,10,8.425L9.27,7.839L8.33,8.746z"/>
	</defs>
	<use xlink:href="#SVGID_5_"  overflow="visible" fill="#42B27F"/>
	<clipPath id="SVGID_6_">
		<use xlink:href="#SVGID_5_"  overflow="visible"/>
	</clipPath>
	
		<rect x="-2.963" y="13.096" transform="matrix(0.0045 -1 1 0.0045 -10.8124 25.3897)" clip-path="url(#SVGID_6_)" fill="#42B27F" width="20.619" height="10.059"/>
</g>
<g>
	<defs>
		<path id="SVGID_7_" d="M7.873,1.817c-1.151,0-2.081,0.854-2.081,1.952c0,0.112,0.029,0.586,0.029,0.723
			c-0.009,0-0.026-0.003-0.048-0.006C5.66,4.469,5.418,4.453,5.458,4.897C5.564,6.03,5.912,5.813,5.923,5.813
			C6.147,6.495,6.49,6.93,6.828,7.209c0.526,0.432,1.039,0.543,1.047,0.543c0,0,0.014,0.005,0.042,0.005
			c0.027,0,0.044-0.005,0.044-0.005c0.008,0,0.518-0.111,1.041-0.538C9.343,6.939,9.69,6.5,9.913,5.816
			c0.014,0,0.371,0.223,0.477-0.907c0.041-0.46-0.226-0.45-0.335-0.439c-0.018,0.002-0.032,0.003-0.039,0.003
			c0-0.137,0.029-0.591,0.029-0.703c0-1.1-0.933-1.952-2.081-1.952H7.873z"/>
	</defs>
	<use xlink:href="#SVGID_7_"  overflow="visible" fill="#42B27F"/>
	<clipPath id="SVGID_8_">
		<use xlink:href="#SVGID_7_"  overflow="visible"/>
	</clipPath>
	
		<rect x="4.943" y="2.267" transform="matrix(0.0045 -1 1 0.0045 3.1013 12.6906)" clip-path="url(#SVGID_8_)" fill="#42B27F" width="5.963" height="5.041"/>
</g>
<g>
	<path fill="#42B27F" d="M24.314,21.934l0.088-4.999v-5.126c0,0-0.087-0.883-1.194-1.264l-0.044-0.002l-0.088-0.023
		c-0.487-0.179-0.99-0.354-0.99-0.354c-0.045-0.017-0.095-0.034-0.141-0.051c-0.635-0.239-1.288-0.447-1.955-0.655l-0.895-0.718
		l-1.152,1.112l0.503,6.42l-0.99,1.057l-0.959-1.061l0.483-6.415l-1.156-1.112L14.926,9.46c-0.668,0.212-1.323,0.42-1.955,0.656
		c-0.044,0.017-0.089,0.034-0.133,0.05c0,0-0.375,0.133-0.795,0.286l-0.033,0.011l0,0.001c-1.346,0.455-1.345,1.343-1.345,1.343
		l0.001,5.126l-0.001,5.133c0,0,0.482,0.565,1.375,0.59c0.02,0.001,0.04,0.001,0.061,0.001c0.921,0,1.341-0.591,1.341-0.591
		l0.001,10.607c0,0.497,0.665,1.206,2.022,1.203c1.35-0.003,2.027-1.018,2.027-1.018s0.681,1.071,2.029,1.071
		c1.337,0,2.011-0.963,2.011-1.462l-0.001-10.535c0,0,0.421,0.471,1.348,0.471h0.042C23.832,22.405,24.314,21.934,24.314,21.934"/>
	<path fill="#42B27F" d="M14.998,6.263c0.273,0.834,0.694,1.367,1.107,1.709c0.644,0.529,1.272,0.666,1.282,0.666
		c0,0,0.016,0.006,0.051,0.006c0.033,0,0.054-0.006,0.054-0.006c0.01,0,0.634-0.136,1.275-0.659
		c0.417-0.339,0.841-0.875,1.114-1.712c0.018,0,0.455,0.273,0.584-1.111c0.059-0.657-0.395-0.531-0.458-0.534
		c0-0.167,0.035-0.875,0.035-1.012c0-1.347-1.143-2.54-2.548-2.54h-0.112c-1.409,0-2.548,1.196-2.548,2.54
		c0,0.137,0.035,0.793,0.035,0.96c-0.063,0.003-0.503-0.12-0.443,0.534C14.558,6.49,14.984,6.263,14.998,6.263"/>
</g>
</svg>
