<?xml version="1.0" encoding="utf-8"?>
<!-- Generator: Adobe Illustrator 17.0.0, SVG Export Plug-In . SVG Version: 6.00 Build 0)  -->
<!DOCTYPE svg PUBLIC "-//W3C//DTD SVG 1.1//EN" "http://www.w3.org/Graphics/SVG/1.1/DTD/svg11.dtd">
<svg version="1.1" id="Capa_1" xmlns="http://www.w3.org/2000/svg" xmlns:xlink="http://www.w3.org/1999/xlink" x="0px" y="0px"
	 width="35px" height="35px" viewBox="0 0 35 35" enable-background="new 0 0 35 35" xml:space="preserve">
<g>
	<path fill="#FFFFFF" d="M33.048,12.077l-0.001-0.001l-0.051-0.018c-0.376-0.139-0.757-0.273-0.757-0.273
		c-0.524-0.201-1.062-0.374-1.615-0.547l-0.692-0.555l-0.89,0.86l0.389,4.965l-0.766,0.818l-0.742-0.821l0.374-4.962l-0.895-0.86
		l-0.694,0.555c-0.554,0.176-1.096,0.348-1.615,0.547c0,0-0.29,0.103-0.615,0.221l-0.026,0.009v0.001
		c-1.041,0.353-1.041,1.039-1.041,1.039l0.001,3.966l-0.001,3.97c0,0,0.39,0.458,1.111,0.458c0.713,0,1.037-0.458,1.037-0.458
		l0.001,8.205c0,0.385,0.515,0.934,1.564,0.931c1.044-0.003,1.568-0.787,1.568-0.787s0.526,0.828,1.569,0.828
		c1.034,0,1.556-0.745,1.556-1.131v-8.046c0,0,0.326,0.468,1.042,0.468c0.721,0,1.043-0.468,1.043-0.468l0.001-3.97v-3.966
		C33.904,13.055,33.904,12.372,33.048,12.077"/>
	<path fill="#FFFFFF" d="M26.764,8.766c0.212,0.645,0.537,1.057,0.856,1.322c0.499,0.41,0.984,0.515,0.992,0.515
		c0,0,0.013,0.004,0.039,0.004s0.042-0.004,0.042-0.004c0.007,0,0.49-0.106,0.986-0.51c0.322-0.262,0.651-0.677,0.862-1.325
		c0.013,0,0.351,0.212,0.452-0.859c0.046-0.508-0.306-0.411-0.355-0.413c0-0.129,0.028-0.596,0.028-0.702
		c0-1.042-0.884-1.884-1.971-1.884H28.61c-1.089,0-1.97,0.845-1.97,1.884c0,0.106,0.027,0.573,0.027,0.702
		c-0.049,0.002-0.389-0.112-0.342,0.393C26.424,8.962,26.753,8.766,26.764,8.766"/>
</g>
<g>
	<g>
		<polygon id="SVGID_1_" fill="#FFFFFF" points="15.72,11.543 13.788,14.889 15.756,14.889 15.756,30.167 19.548,30.167 
			19.548,14.889 21.516,14.889 19.583,11.543 17.652,8.196 		"/>
	</g>
	<g>
		<defs>
			<polygon id="SVGID_2_" points="15.72,11.543 13.788,14.889 15.756,14.889 15.756,30.167 19.548,30.167 19.548,14.889 
				21.516,14.889 19.583,11.543 17.652,8.196 			"/>
		</defs>
		<use xlink:href="#SVGID_2_"  overflow="visible" fill="#FFFFFF"/>
		<clipPath id="SVGID_4_">
			<use xlink:href="#SVGID_2_"  overflow="visible"/>
		</clipPath>
		<rect x="13.788" y="8.196" clip-path="url(#SVGID_4_)" fill="#FFFFFF" width="7.728" height="21.97"/>
	</g>
</g>
<g>
	<g>
		<rect id="SVGID_3_" x="8.632" y="19.632" fill="#FFFFFF" width="3.792" height="10.535"/>
	</g>
	<g>
		<defs>
			<rect id="SVGID_6_" x="8.632" y="19.632" width="3.792" height="10.535"/>
		</defs>
		<use xlink:href="#SVGID_6_"  overflow="visible" fill="#FFFFFF"/>
		<clipPath id="SVGID_7_">
			<use xlink:href="#SVGID_6_"  overflow="visible"/>
		</clipPath>
		<rect x="8.632" y="19.632" clip-path="url(#SVGID_7_)" fill="#FFFFFF" width="3.792" height="10.535"/>
	</g>
</g>
<g>
	<g>
		<rect id="SVGID_5_" x="1.507" y="23.959" fill="#FFFFFF" width="3.793" height="6.207"/>
	</g>
	<g>
		<defs>
			<rect id="SVGID_8_" x="1.507" y="23.959" width="3.793" height="6.207"/>
		</defs>
		<use xlink:href="#SVGID_8_"  overflow="visible" fill="#FFFFFF"/>
		<clipPath id="SVGID_9_">
			<use xlink:href="#SVGID_8_"  overflow="visible"/>
		</clipPath>
		<rect x="1.507" y="23.959" clip-path="url(#SVGID_9_)" fill="#FFFFFF" width="3.793" height="6.207"/>
	</g>
</g>
</svg>
