{
  "executionRoleArn": "arn:aws:iam::319540887169:role/ecsTaskExecutionRole",
  "containerDefinitions": [
    {
      "logConfiguration": {
        "logDriver": "awslogs",
        "options": {
          "awslogs-group": "/ecs/task-ms-plaraformacore-v1-dev",
          "awslogs-region": "us-east-1",
          "awslogs-stream-prefix": "ecs"
        }
      },
      "portMappings": [
        {
          "hostPort": 8181,
          "protocol": "tcp",
          "containerPort": 8181
        },
        {
          "hostPort": 9999,
          "protocol": "tcp",
          "containerPort": 9999
        }
      ],
      "cpu": 0,
      "environment": [
        {
          "name": "DS_GTN_PL_MIS",
          "value": "0"
        },
        {
          "name": "DS_FRQ_DB_USER",
          "value": "masterdb"
        },
        {
          "name": "DS_GTN_PL_MAS",
          "value": "100"
        },
        {
          "name": "DS_FRQ_PL_MIS",
          "value": "0"
        },
        {
          "name": "DS_FRQ_DB_PASSWORD",
          "value": "OPsURhUKI2xaMxCqX65"
        },
        {
          "name": "DS_MODFRQ_PL_MAS",
          "value": "100"
        },
        {
          "name": "DS_DB_NAME",
          "value": "franquicia"
        },
        {
          "name": "DS_FRQ_PL_MAS",
          "value": "100"
        },
        {
          "name": "DS_GTN_DB_USER",
          "value": "masterdb"
        },
        {
          "name": "DS_MODFRQ_PL_MIS",
          "value": "0"
        },
        {
          "name": "DS_MODFRQ_DB_USER",
          "value": "masterdb"
        },
        {
          "name": "DS_DB_PORT",
          "value": "5682"
        },
        {
          "name": "DS_DB_HOST",
          "value": "rds-aurora-postgresql-desarrollo-instance-1.cqligebwy7zq.us-east-1.rds.amazonaws.com"
        },
        {
          "name": "DS_GTN_DB_PASSWORD",
          "value": "OPsURhUKI2xaMxCqX65"
        },
        {
          "name": "DS_MODFRQ_DB_PASSWORD",
          "value": "OPsURhUKI2xaMxCqX65"
        }
      ],
      "mountPoints": [
        {
          "containerPath": "/franquicia",
          "sourceVolume": "EFS-PLATAFORMACORE-FRAN"
        },
        {
          "containerPath": "/logs",
          "sourceVolume": "EFS-PLATAFORMACORE-LOGS"
        }
      ],
      "volumesFrom": [],
      "image": "319540887169.dkr.ecr.us-east-1.amazonaws.com/plataforma-de-franquicia-core-franquicia-dev:v1.5-89",
      "name": "plataforma-core-dev"
    }
  ],
  "memory": "2048",
  "taskRoleArn": "arn:aws:iam::319540887169:role/ecsTaskExecutionRole",
  "family": "task-ms-plaraformacore-v1-dev",
  "requiresCompatibilities": ["FARGATE"],
  "networkMode": "awsvpc",
  "cpu": "1024",
  "inferenceAccelerators": [],
  "volumes": [
    {
      "efsVolumeConfiguration": {
        "fileSystemId": "fs-04c70b8404c0efb0c",
        "authorizationConfig": {
          "iam": "DISABLED"
        },
        "transitEncryption": "DISABLED",
        "rootDirectory": "/logs"
      },
      "name": "EFS-PLATAFORMACORE-LOGS"
    },
    {
      "efsVolumeConfiguration": {
        "fileSystemId": "fs-04c70b8404c0efb0c",
        "authorizationConfig": {
          "iam": "DISABLED"
        },
        "transitEncryption": "DISABLED",
        "rootDirectory": "/franquicia"
      },
      "name": "EFS-PLATAFORMACORE-FRAN"
    }
  ]
}
