<?xml version="1.0" encoding="iso-8859-1"?>
<!-- Generator: Adobe Illustrator 21.0.1, SVG Export Plug-In . SVG Version: 6.00 Build 0)  -->
<svg version="1.1" id="Capa_1" xmlns="http://www.w3.org/2000/svg" xmlns:xlink="http://www.w3.org/1999/xlink" x="0px" y="0px"
	 viewBox="0 0 10 10" style="enable-background:new 0 0 10 10;" xml:space="preserve">
<path id="Shape_1_copy_2" style="fill:#29C19A;" d="M1.441,0.999h7.107c0.275,0.02,0.482,0.26,0.462,0.535
	C9.004,1.618,8.977,1.699,8.931,1.77C8.776,2.078,5.652,8.221,5.385,8.745C5.297,8.957,5.053,9.058,4.84,8.969
	C4.738,8.927,4.657,8.846,4.615,8.745c-0.2-0.377-3.337-6.544-3.555-6.99C0.917,1.518,0.994,1.211,1.23,1.068
	C1.294,1.029,1.366,1.006,1.441,0.999z"/>
</svg>
