<?xml version="1.0" encoding="iso-8859-1"?>
<!-- Generator: Adobe Illustrator 21.0.1, SVG Export Plug-In . SVG Version: 6.00 Build 0)  -->
<svg version="1.1" id="Capa_1" xmlns="http://www.w3.org/2000/svg" xmlns:xlink="http://www.w3.org/1999/xlink" x="0px" y="0px"
	 viewBox="0 0 28 28" style="enable-background:new 0 0 28 28;" xml:space="preserve">
<g id="_x34__19_">
	<g>
		<path style="fill:#29C19A;" d="M17.75,23c0.414,0,0.75-0.335,0.75-0.75v-9c0-0.414-0.336-0.75-0.75-0.75
			c-0.414,0-0.75,0.336-0.75,0.75v9C17,22.665,17.336,23,17.75,23z M22.25,5h-4.5V3.5c0-0.828-0.672-1.5-1.5-1.5h-4.5
			c-0.828,0-1.5,0.672-1.5,1.5V5h-4.5c-0.828,0-1.5,0.672-1.5,1.5V8c0,0.828,0.672,1.5,1.5,1.5V23c0,1.657,1.343,3,3,3h10.5
			c1.657,0,3-1.343,3-3V9.5c0.828,0,1.5-0.672,1.5-1.5V6.5C23.75,5.672,23.078,5,22.25,5z M11.75,4.25c0-0.415,0.336-0.75,0.75-0.75
			h3c0.414,0,0.75,0.335,0.75,0.75V5c-0.727,0-4.5,0-4.5,0V4.25z M20.75,23c0,0.828-0.672,1.5-1.5,1.5H8.75
			c-0.828,0-1.5-0.672-1.5-1.5V9.5h13.5V23z M21.5,8h-15C6.086,8,5.75,7.665,5.75,7.25c0-0.414,0.336-0.75,0.75-0.75h15
			c0.414,0,0.75,0.336,0.75,0.75C22.25,7.665,21.914,8,21.5,8z M10.25,23c0.414,0,0.75-0.335,0.75-0.75v-9
			c0-0.414-0.336-0.75-0.75-0.75c-0.414,0-0.75,0.336-0.75,0.75v9C9.5,22.665,9.836,23,10.25,23z M14,23
			c0.414,0,0.75-0.335,0.75-0.75v-9c0-0.414-0.336-0.75-0.75-0.75c-0.414,0-0.75,0.336-0.75,0.75v9C13.25,22.665,13.586,23,14,23z"
			/>
	</g>
</g>
</svg>
