<?xml version="1.0" encoding="utf-8"?>
<!-- Generator: Adobe Illustrator 21.0.1, SVG Export Plug-In . SVG Version: 6.00 Build 0)  -->
<svg version="1.1" id="Capa_1" xmlns="http://www.w3.org/2000/svg" xmlns:xlink="http://www.w3.org/1999/xlink" x="0px" y="0px"
	 viewBox="0 0 24 24" style="enable-background:new 0 0 24 24;" xml:space="preserve">
<style type="text/css">
	.st0{fill:#29C19A;}
</style>
<path class="st0" d="M8.6,21.2v-1.1h2.9v-5.4c-3.1-0.3-5.6-2.8-5.8-6L2.6,5.6C2.3,5.3,2.1,4.9,2.1,4.4c0-0.9,0.7-1.6,1.6-1.6l2,0
	l0.2,0h12.4v0c0,0,1.9,0,1.9,0c0.5,0,0.9,0.2,1.2,0.5c0.3,0.3,0.5,0.7,0.5,1.2c0,0.4-0.2,0.9-0.5,1.2l-3.1,3.1
	c-0.2,3.1-2.6,5.7-5.8,6v5.4h2.9v1.1H8.6z M6.8,8.4c0,2.9,2.3,5.2,5.2,5.2c2.9,0,5.2-2.3,5.2-5.2V3.9H6.8V8.4z M3.7,3.9
	c-0.3,0-0.5,0.2-0.5,0.5c0,0.1,0.1,0.3,0.2,0.4l2.3,2.3V3.9L3.7,3.9z M18.3,7.1l2.3-2.3c0.1-0.1,0.2-0.2,0.2-0.4
	c0-0.3-0.2-0.5-0.5-0.5l-2,0V7.1z"/>
</svg>
