<?xml version="1.0" encoding="iso-8859-1"?>
<!-- Generator: Adobe Illustrator 21.0.1, SVG Export Plug-In . SVG Version: 6.00 Build 0)  -->
<svg version="1.1" id="Capa_1" xmlns="http://www.w3.org/2000/svg" xmlns:xlink="http://www.w3.org/1999/xlink" x="0px" y="0px"
	 viewBox="0 0 24 24" style="enable-background:new 0 0 24 24;" xml:space="preserve">
<path id="thumbnails" style="fill:#29C19A;" d="M4.504,6.454h2.993v2.974h-2.99V6.454H4.504z M4.497,10.44h3v3.028h-3V10.44z
	 M4.497,14.546h3v3h-3V14.546z M8.485,6.457h3v3h-3V6.457z M8.485,10.473h3.03v3h-3.03V10.473z M8.485,14.517h3.027v3.027H8.485
	v-3.029V14.517z M12.503,6.486h3v3h-3V6.486z M12.503,10.41h3v3.058h-3V10.41z M12.503,14.457h3v3.089h-3V14.457L12.503,14.457z
	 M16.503,6.457h3v3h-3V6.457z M16.497,10.486h3v2.969h-3V10.486z M16.497,14.517h3v3h-3V14.517z"/>
</svg>
