<?xml version="1.0" encoding="iso-8859-1"?>
<!-- Generator: Adobe Illustrator 21.0.1, SVG Export Plug-In . SVG Version: 6.00 Build 0)  -->
<svg version="1.1" id="Capa_1" xmlns="http://www.w3.org/2000/svg" xmlns:xlink="http://www.w3.org/1999/xlink" x="0px" y="0px"
	 viewBox="0 0 28 28" style="enable-background:new 0 0 28 28;" xml:space="preserve">
<g>
	<rect x="13.323" y="1" style="fill:#FFFFFF;" width="1.04" height="12.48"/>
	<path style="fill:#FFFFFF;" d="M19.043,3.104v1.15c3.786,1.867,6.397,5.767,6.397,10.265c0,6.308-5.132,11.44-11.44,11.44
		c-6.308,0-11.44-5.132-11.44-11.44c0-4.373,2.468-8.179,6.083-10.104V3.247C4.431,5.251,1.52,9.545,1.52,14.52
		C1.52,21.413,7.108,27,14,27c6.893,0,12.48-5.587,12.48-12.48C26.48,9.423,23.423,5.042,19.043,3.104z"/>
</g>
</svg>
