<svg id="calendar" xmlns="http://www.w3.org/2000/svg" width="33.965" height="33.965" viewBox="0 0 33.965 33.965">
  <defs>
    <style>
      .cls-1 {
        fill: #40ae2a;
      }
    </style>
  </defs>
  <path id="Trazado_601" data-name="Trazado 601" class="cls-1" d="M30.073,73.8H3.892A3.9,3.9,0,0,1,0,69.911V46.56a3.9,3.9,0,0,1,3.892-3.892H30.073a3.9,3.9,0,0,1,3.892,3.892V69.911A3.9,3.9,0,0,1,30.073,73.8ZM3.892,44.791A1.771,1.771,0,0,0,2.123,46.56V69.911A1.772,1.772,0,0,0,3.892,71.68H30.073a1.772,1.772,0,0,0,1.769-1.769V46.56a1.771,1.771,0,0,0-1.769-1.769Zm0,0" transform="translate(0 -39.837)"/>
  <path id="Trazado_602" data-name="Trazado 602" class="cls-1" d="M32.9,172.791H1.061a1.061,1.061,0,1,1,0-2.123H32.9a1.061,1.061,0,0,1,0,2.123Zm0,0" transform="translate(0 -159.346)"/>
  <path id="Trazado_603" data-name="Trazado 603" class="cls-1" d="M107.729,8.491a1.062,1.062,0,0,1-1.061-1.061V1.061a1.061,1.061,0,0,1,2.123,0V7.43A1.062,1.062,0,0,1,107.729,8.491Zm0,0" transform="translate(-99.592)"/>
  <path id="Trazado_604" data-name="Trazado 604" class="cls-1" d="M374.393,8.491a1.062,1.062,0,0,1-1.061-1.061V1.061a1.061,1.061,0,0,1,2.123,0V7.43A1.062,1.062,0,0,1,374.393,8.491Zm0,0" transform="translate(-348.566)"/>
</svg>
